# Pro-tip: Try not to put anything here. Avoid dependencies in
#	production that aren't in development.
-r base.txt

# Python-PostgreSQL Database Adapter
# If using Win for dev, this assumes Unix in prod
# ------------------------------------------------
psycopg2==2.6.1

# WSGI Handler
# ------------------------------------------------
gevent==1.1.1
gunicorn==19.5.0

# Static and Media Storage
# ------------------------------------------------
boto==2.40.0
django-storages-redux==1.3.2


# Mailgun Support
# ---------------
django-mailgun==0.9.1






django-redis==4.4.2
redis>=2.10.0
django-extensions==1.6.7
